<?xml version="1.0" encoding="UTF-8"?>
<svg xmlns="http://www.w3.org/2000/svg" xmlns:xlink="http://www.w3.org/1999/xlink" width="14pt" height="14pt" viewBox="0 0 14 14" version="1.1">
<g id="surface1">
<path style=" stroke:none;fill-rule:nonzero;fill:rgb(60.392157%,60.392157%,60.392157%);fill-opacity:1;" d="M 6.90625 1.152344 C 10.082031 1.152344 12.664062 3.734375 12.664062 6.90625 C 12.664062 10.082031 10.082031 12.664062 6.90625 12.664062 C 3.734375 12.664062 1.152344 10.082031 1.152344 6.90625 C 1.152344 3.734375 3.734375 1.152344 6.90625 1.152344 Z M 6.90625 0 C 3.09375 0 0 3.09375 0 6.90625 C 0 10.722656 3.09375 13.816406 6.90625 13.816406 C 10.722656 13.816406 13.816406 10.722656 13.816406 6.90625 C 13.816406 3.09375 10.722656 0 6.90625 0 Z M 6.90625 3.308594 C 7.304688 3.308594 7.628906 3.632812 7.628906 4.03125 C 7.628906 4.425781 7.304688 4.75 6.90625 4.75 C 6.507812 4.75 6.1875 4.425781 6.1875 4.03125 C 6.1875 3.632812 6.507812 3.308594 6.90625 3.308594 Z M 8.058594 10.363281 L 5.757812 10.363281 L 5.757812 9.785156 C 6.035156 9.683594 6.332031 9.671875 6.332031 9.363281 L 6.332031 6.792969 C 6.332031 6.484375 6.035156 6.4375 5.757812 6.332031 L 5.757812 5.757812 L 7.484375 5.757812 L 7.484375 9.367188 C 7.484375 9.671875 7.78125 9.683594 8.058594 9.785156 Z M 8.058594 10.363281 "/>
</g>
</svg>
